[{
    "pid": "1339900266302",
    "hn": "88888/66",
    "periodStart": "2019-10-16",
    "periodEnd": "2019-10-31",
    "policyHolderId": "03",
    "policyHolderName": "ประกันสังคมรพ.รร6"
},
{
    "pid": "1339900266302",
    "hn": "88888/66",
    "periodStart": null,
    "periodEnd": null,
    "policyHolderId": "10",
    "policyHolderName": "30 บาท (มี ท.)"
},
{
    "pid": "1339900266302",
    "hn": "88888/66",
    "periodStart": null,
    "periodEnd": null,
    "policyHolderId": "122",
    "policyHolderName": "ผ่านศึก (ตจว)"
},
{
    "pid": "1339900266302",
    "hn": "88888/66",
    "periodStart": null,
    "periodEnd": null,
    "policyHolderId": "49",
    "policyHolderName": "ตรวจสุขภาพเจ้าหน้าที่สิทธิประกันสังคม รพ.รร.6"
},
{
    "pid": "1101401165947",
    "hn": "77777/77",
    "periodStart": "2006-10-03",
    "periodEnd": "2009-11-29",
    "policyHolderId": "49",
    "policyHolderName": "ตรวจสุขภาพเจ้าหน้าที่สิทธิประกันสังคม รพ.รร.6"
},
{
    "pid": "1101401165947",
    "hn": "77777/77",
    "periodStart": null,
    "periodEnd": null,
    "policyHolderId": "53",
    "policyHolderName": "ชำระเงินเอง"
},
{
    "pid": "1101401165947",
    "hn": "77777/77",
    "periodStart": "null",
    "periodEnd": "null",
    "policyHolderId": "03",
    "policyHolderName": "ประกันสังคมรพ.รร6"
},
{
    "pid": "1101401165947",
    "hn": "77777/77",
    "periodStart": null,
    "periodEnd": null,
    "policyHolderId": "122",
    "policyHolderName": "ผ่านศึก (ตจว)"
},
{
	"pid": "1101401165947",
	"hn": "77777/77",
	"periodStart": null,
	"periodEnd": null,
	"policyHolderId": "105",
	"policyHolderName": "ผู้พิการ (กทม)"
},
{
    "pid": "1101401165947",
    "hn": "77777/77",
    "periodStart": "2018-10-19",
    "periodEnd": "2019-12-31",
    "policyHolderId": "52",
    "policyHolderName": "จ่ายตรงกรมบัญชีกลาง (ผู้ป่วยนอก)"
}
]