[
  {
    "pid": "3102101687031",
    "hn": "56501/60",
    "periodStart": null,
    "periodEnd": null,
    "policyHolderId": "52",
    "policyHolderName": "จ่ายตรงกรมบัญชีกลาง (ผู้ป่วยนอก)",
    "creditNo": 16167083
  },
  {
    "pid": "5100299114741",
    "hn": "62703/48",
    "periodStart": null,
    "periodEnd": null,
    "policyHolderId": "53",
    "policyHolderName": "เงินสด",
    "creditNo": 16166275,
    "createdDateTime": "2019-11-25 09:18:47"
  },
  {
    "pid": "5100299114741",
    "hn": "62703/48",
    "periodStart": null,
    "periodEnd": null,
    "policyHolderId": "52",
    "policyHolderName": "จ่ายตรงกรมบัญชีกลาง (ผู้ป่วยนอก)",
    "creditNo": 16166275,
    "createdDateTime": "2019-11-25 09:18:47"
  },
  {
    "pid": "3300101702738",
    "hn": "42204/48",
    "periodStart": "2006-10-03",
    "periodEnd": "2020-12-31",
    "policyHolderId": "53",
    "policyHolderName": "เงินสด",
    "creditNo": 16159965,
    "createdDateTime": "2019-11-22 12:33:10"
  },
  {
    "pid": "1101401165947",
    "hn": "77777/77",
    "periodStart": null,
    "periodEnd": null,
    "policyHolderId": "52",
    "policyHolderName": "จ่ายตรงกรมบัญชีกลาง (ผู้ป่วยนอก)"
  },
  {
    "pid": "3101401946651",
    "hn": "44800/62",
    "periodStart": null,
    "periodEnd": null,
    "policyHolderId": "53",
    "policyHolderName": "เงินสด",
    "creditNo": 16163998,
    "createdDateTime": "2019-11-25 05:39:08"
  },
  {
    "pid": "1101401165947",
    "hn": "77777/77",
    "periodStart": "null",
    "periodEnd": "null",
    "policyHolderId": "121",
    "policyHolderName": "ผ่านศึก (กทม)"
  },
  {
    "pid": "1339900266302",
    "hn": "88888/88",
    "periodStart": "null",
    "periodEnd": "null",
    "policyHolderId": "53",
    "policyHolderName": "เงินสด"
  },
  {
    "pid": "1339900266302",
    "hn": "88888/88",
    "periodStart": "null",
    "periodEnd": "null",
    "policyHolderId": "121",
    "policyHolderName": "ผ่านศึก (กทม)"
  },
  {
    "pid": "1339900266302",
    "hn": "88888/88",
    "periodStart": null,
    "periodEnd": null,
    "policyHolderId": "52",
    "policyHolderName": "จ่ายตรงกรมบัญชีกลาง (ผู้ป่วยนอก)"
  },
  {
    "pid": "1709900604646",
    "hn": "12222/99",
    "periodStart": "null",
    "periodEnd": "null",
    "policyHolderId": "53",
    "policyHolderName": "เงินสด",
    "creditNo": 99999999,
    "createdDateTime": "2020-01-31 12:33:10"
  },
  {
    "pid": "1709900604646",
    "hn": "12222/99",
    "periodStart": "null",
    "periodEnd": "null",
    "policyHolderId": "52",
    "policyHolderName": "กรมบัญชีกลาง",
    "creditNo": 99999998,
    "createdDateTime": "2020-01-31 12:33:10"
  },
  {
    "pid": "5504974823970",
    "hn": "13333/99",
    "periodStart": "null",
    "periodEnd": "null",
    "policyHolderId": "53",
    "policyHolderName": "เงินสด",
    "creditNo": 99999997,
    "createdDateTime": "2020-01-31 12:33:10"
  },
  {
    "pid": "3903279890434",
    "hn": "14444/99",
    "periodStart": "null",
    "periodEnd": "null",
    "policyHolderId": "999",
    "policyHolderName": "ผู้พิการ",
    "creditNo": 9999996,
    "createdDateTime": "2020-01-31 12:33:10"
  }
]
